.Xil/Vivado-20072-xyh/hw_ila_data_1/zip_work/waveform.vcd
$date
        2024-Jan-02 21:58:56
$end
$version
        Vivado v2023.2 (64-bit)
$end
$timescale
        1ps
$end
$scope module dut $end
$var reg 1 " cpu_test_i/PS_to_CPU_controller_0_enable_CPU $end
$var reg 16 # cpu_test_i/CPU_0_current_addr [15:0] $end
$var reg 1 3 cpu_test_i/PS_to_CPU_controller_0_CPU_done $end
$var reg 32 4 cpu_test_i/bluex_0_ram_wr_data [31:0] $end
$var reg 32 T cpu_test_i/blk_mem_gen_1_doutb [31:0] $end
$var reg 1 t cpu_test_i/bluex_0_ram_en $end
$var reg 1 u _TRIGGER $end
$var reg 1 v _WINDOW $end
$var reg 1 w _GAP $end
$upscope $end
$enddefinitions $end
#0
$dumpvars
1"
b1111111000011000 #
03
b0 4
b0 T
0t
0u
1v
0w
$end
#1
b1111111000011001 #
#2
b1111111000011010 #
#3
b1111111000011011 #
#4
b1111111000011100 #
#5
b1111111000011101 #
#6
b1111111000011110 #
#7
b1111111000011111 #
#8
b1111111000100000 #
#9
b1111111000100001 #
#10
b1111111000100010 #
#11
b1111111000100011 #
#12
b1111111000100100 #
#13
b1111111000100101 #
#14
b1111111000100110 #
#15
b1111111000100111 #
#16
b1111111000101000 #
#17
b1111111000101001 #
#18
b1111111000101010 #
#19
b1111111000101011 #
#20
b1111111000101100 #
#21
b1111111000101101 #
#22
b1111111000101110 #
#23
b1111111000101111 #
#24
b1111111000110000 #
#25
b1111111000110001 #
#26
b1111111000110010 #
#27
b1111111000110011 #
#28
b1111111000110100 #
#29
b1111111000110101 #
#30
b1111111000110110 #
#31
b1111111000110111 #
#32
b1111111000111000 #
#33
b1111111000111001 #
#34
b1111111000111010 #
#35
b1111111000111011 #
#36
b1111111000111100 #
#37
b1111111000111101 #
#38
b1111111000111110 #
#39
b1111111000111111 #
#40
b1111111001000000 #
#41
b1111111001000001 #
#42
b1111111001000010 #
#43
b1111111001000011 #
#44
b1111111001000100 #
#45
b1111111001000101 #
#46
b1111111001000110 #
#47
b1111111001000111 #
#48
b1111111001001000 #
#49
b1111111001001001 #
#50
b1111111001001010 #
#51
b1111111001001011 #
#52
b1111111001001100 #
#53
b1111111001001101 #
#54
b1111111001001110 #
#55
b1111111001001111 #
#56
b1111111001010000 #
#57
b1111111001010001 #
#58
b1111111001010010 #
#59
b1111111001010011 #
#60
b1111111001010100 #
#61
b1111111001010101 #
#62
b1111111001010110 #
#63
b1111111001010111 #
#64
b1111111001011000 #
#65
b1111111001011001 #
#66
b1111111001011010 #
#67
b1111111001011011 #
#68
b1111111001011100 #
#69
b1111111001011101 #
#70
b1111111001011110 #
#71
b1111111001011111 #
#72
b1111111001100000 #
#73
b1111111001100001 #
#74
b1111111001100010 #
#75
b1111111001100011 #
#76
b1111111001100100 #
#77
b1111111001100101 #
#78
b1111111001100110 #
#79
b1111111001100111 #
#80
b1111111001101000 #
#81
b1111111001101001 #
#82
b1111111001101010 #
#83
b1111111001101011 #
#84
b1111111001101100 #
#85
b1111111001101101 #
#86
b1111111001101110 #
#87
b1111111001101111 #
#88
b1111111001110000 #
#89
b1111111001110001 #
#90
b1111111001110010 #
#91
b1111111001110011 #
#92
b1111111001110100 #
#93
b1111111001110101 #
#94
b1111111001110110 #
#95
b1111111001110111 #
#96
b1111111001111000 #
#97
b1111111001111001 #
#98
b1111111001111010 #
#99
b1111111001111011 #
#100
b1111111001111100 #
#101
b1111111001111101 #
#102
b1111111001111110 #
#103
b1111111001111111 #
#104
b1111111010000000 #
#105
b1111111010000001 #
#106
b1111111010000010 #
#107
b1111111010000011 #
#108
b1111111010000100 #
#109
b1111111010000101 #
#110
b1111111010000110 #
#111
b1111111010000111 #
#112
b1111111010001000 #
#113
b1111111010001001 #
#114
b1111111010001010 #
#115
b1111111010001011 #
#116
b1111111010001100 #
#117
b1111111010001101 #
#118
b1111111010001110 #
#119
b1111111010001111 #
#120
b1111111010010000 #
#121
b1111111010010001 #
#122
b1111111010010010 #
#123
b1111111010010011 #
#124
b1111111010010100 #
#125
b1111111010010101 #
#126
b1111111010010110 #
#127
b1111111010010111 #
#128
b1111111010011000 #
#129
b1111111010011001 #
#130
b1111111010011010 #
#131
b1111111010011011 #
#132
b1111111010011100 #
#133
b1111111010011101 #
#134
b1111111010011110 #
#135
b1111111010011111 #
#136
b1111111010100000 #
#137
b1111111010100001 #
#138
b1111111010100010 #
#139
b1111111010100011 #
#140
b1111111010100100 #
#141
b1111111010100101 #
#142
b1111111010100110 #
#143
b1111111010100111 #
#144
b1111111010101000 #
#145
b1111111010101001 #
#146
b1111111010101010 #
#147
b1111111010101011 #
#148
b1111111010101100 #
#149
b1111111010101101 #
#150
b1111111010101110 #
#151
b1111111010101111 #
#152
b1111111010110000 #
#153
b1111111010110001 #
#154
b1111111010110010 #
#155
b1111111010110011 #
#156
b1111111010110100 #
#157
b1111111010110101 #
#158
b1111111010110110 #
#159
b1111111010110111 #
#160
b1111111010111000 #
#161
b1111111010111001 #
#162
b1111111010111010 #
#163
b1111111010111011 #
#164
b1111111010111100 #
#165
b1111111010111101 #
#166
b1111111010111110 #
#167
b1111111010111111 #
#168
b1111111011000000 #
#169
b1111111011000001 #
#170
b1111111011000010 #
#171
b1111111011000011 #
#172
b1111111011000100 #
#173
b1111111011000101 #
#174
b1111111011000110 #
#175
b1111111011000111 #
#176
b1111111011001000 #
#177
b1111111011001001 #
#178
b1111111011001010 #
#179
b1111111011001011 #
#180
b1111111011001100 #
#181
b1111111011001101 #
#182
b1111111011001110 #
#183
b1111111011001111 #
#184
b1111111011010000 #
#185
b1111111011010001 #
#186
b1111111011010010 #
#187
b1111111011010011 #
#188
b1111111011010100 #
#189
b1111111011010101 #
#190
b1111111011010110 #
#191
b1111111011010111 #
#192
b1111111011011000 #
#193
b1111111011011001 #
#194
b1111111011011010 #
#195
b1111111011011011 #
#196
b1111111011011100 #
#197
b1111111011011101 #
#198
b1111111011011110 #
#199
b1111111011011111 #
#200
b1111111011100000 #
#201
b1111111011100001 #
#202
b1111111011100010 #
#203
b1111111011100011 #
#204
b1111111011100100 #
#205
b1111111011100101 #
#206
b1111111011100110 #
#207
b1111111011100111 #
#208
b1111111011101000 #
#209
b1111111011101001 #
#210
b1111111011101010 #
#211
b1111111011101011 #
#212
b1111111011101100 #
#213
b1111111011101101 #
#214
b1111111011101110 #
#215
b1111111011101111 #
#216
b1111111011110000 #
#217
b1111111011110001 #
#218
b1111111011110010 #
#219
b1111111011110011 #
#220
b1111111011110100 #
#221
b1111111011110101 #
#222
b1111111011110110 #
#223
b1111111011110111 #
#224
b1111111011111000 #
#225
b1111111011111001 #
#226
b1111111011111010 #
#227
b1111111011111011 #
#228
b1111111011111100 #
#229
b1111111011111101 #
#230
b1111111011111110 #
#231
b1111111011111111 #
#232
b1111111100000000 #
#233
b1111111100000001 #
#234
b1111111100000010 #
#235
b1111111100000011 #
#236
b1111111100000100 #
#237
b1111111100000101 #
#238
b1111111100000110 #
#239
b1111111100000111 #
#240
b1111111100001000 #
#241
b1111111100001001 #
#242
b1111111100001010 #
#243
b1111111100001011 #
#244
b1111111100001100 #
#245
b1111111100001101 #
#246
b1111111100001110 #
#247
b1111111100001111 #
#248
b1111111100010000 #
#249
b1111111100010001 #
#250
b1111111100010010 #
#251
b1111111100010011 #
#252
b1111111100010100 #
#253
b1111111100010101 #
#254
b1111111100010110 #
#255
b1111111100010111 #
#256
b1111111100011000 #
#257
b1111111100011001 #
#258
b1111111100011010 #
#259
b1111111100011011 #
#260
b1111111100011100 #
#261
b1111111100011101 #
#262
b1111111100011110 #
#263
b1111111100011111 #
#264
b1111111100100000 #
#265
b1111111100100001 #
#266
b1111111100100010 #
#267
b1111111100100011 #
#268
b1111111100100100 #
#269
b1111111100100101 #
#270
b1111111100100110 #
#271
b1111111100100111 #
#272
b1111111100101000 #
#273
b1111111100101001 #
#274
b1111111100101010 #
#275
b1111111100101011 #
#276
b1111111100101100 #
#277
b1111111100101101 #
#278
b1111111100101110 #
#279
b1111111100101111 #
#280
b1111111100110000 #
#281
b1111111100110001 #
#282
b1111111100110010 #
#283
b1111111100110011 #
#284
b1111111100110100 #
#285
b1111111100110101 #
#286
b1111111100110110 #
#287
b1111111100110111 #
#288
b1111111100111000 #
#289
b1111111100111001 #
#290
b1111111100111010 #
#291
b1111111100111011 #
#292
b1111111100111100 #
#293
b1111111100111101 #
#294
b1111111100111110 #
#295
b1111111100111111 #
#296
b1111111101000000 #
#297
b1111111101000001 #
#298
b1111111101000010 #
#299
b1111111101000011 #
#300
b1111111101000100 #
#301
b1111111101000101 #
#302
b1111111101000110 #
#303
b1111111101000111 #
#304
b1111111101001000 #
#305
b1111111101001001 #
#306
b1111111101001010 #
#307
b1111111101001011 #
#308
b1111111101001100 #
#309
b1111111101001101 #
#310
b1111111101001110 #
#311
b1111111101001111 #
#312
b1111111101010000 #
#313
b1111111101010001 #
#314
b1111111101010010 #
#315
b1111111101010011 #
#316
b1111111101010100 #
#317
b1111111101010101 #
#318
b1111111101010110 #
#319
b1111111101010111 #
#320
b1111111101011000 #
#321
b1111111101011001 #
#322
b1111111101011010 #
#323
b1111111101011011 #
#324
b1111111101011100 #
#325
b1111111101011101 #
#326
b1111111101011110 #
#327
b1111111101011111 #
#328
b1111111101100000 #
#329
b1111111101100001 #
#330
b1111111101100010 #
#331
b1111111101100011 #
#332
b1111111101100100 #
#333
b1111111101100101 #
#334
b1111111101100110 #
#335
b1111111101100111 #
#336
b1111111101101000 #
#337
b1111111101101001 #
#338
b1111111101101010 #
#339
b1111111101101011 #
#340
b1111111101101100 #
#341
b1111111101101101 #
#342
b1111111101101110 #
#343
b1111111101101111 #
#344
b1111111101110000 #
#345
b1111111101110001 #
#346
b1111111101110010 #
#347
b1111111101110011 #
#348
b1111111101110100 #
#349
b1111111101110101 #
#350
b1111111101110110 #
#351
b1111111101110111 #
#352
b1111111101111000 #
#353
b1111111101111001 #
#354
b1111111101111010 #
#355
b1111111101111011 #
#356
b1111111101111100 #
#357
b1111111101111101 #
#358
b1111111101111110 #
#359
b1111111101111111 #
#360
b1111111110000000 #
#361
b1111111110000001 #
#362
b1111111110000010 #
#363
b1111111110000011 #
#364
b1111111110000100 #
#365
b1111111110000101 #
#366
b1111111110000110 #
#367
b1111111110000111 #
#368
b1111111110001000 #
#369
b1111111110001001 #
#370
b1111111110001010 #
#371
b1111111110001011 #
#372
b1111111110001100 #
#373
b1111111110001101 #
#374
b1111111110001110 #
#375
b1111111110001111 #
#376
b1111111110010000 #
#377
b1111111110010001 #
#378
b1111111110010010 #
#379
b1111111110010011 #
#380
b1111111110010100 #
#381
b1111111110010101 #
#382
b1111111110010110 #
#383
b1111111110010111 #
#384
b1111111110011000 #
#385
b1111111110011001 #
#386
b1111111110011010 #
#387
b1111111110011011 #
#388
b1111111110011100 #
#389
b1111111110011101 #
#390
b1111111110011110 #
#391
b1111111110011111 #
#392
b1111111110100000 #
#393
b1111111110100001 #
#394
b1111111110100010 #
#395
b1111111110100011 #
#396
b1111111110100100 #
#397
b1111111110100101 #
#398
b1111111110100110 #
#399
b1111111110100111 #
#400
b1111111110101000 #
#401
b1111111110101001 #
#402
b1111111110101010 #
#403
b1111111110101011 #
#404
b1111111110101100 #
#405
b1111111110101101 #
#406
b1111111110101110 #
#407
b1111111110101111 #
#408
b1111111110110000 #
#409
b1111111110110001 #
#410
b1111111110110010 #
#411
b1111111110110011 #
#412
b1111111110110100 #
#413
b1111111110110101 #
#414
b1111111110110110 #
#415
b1111111110110111 #
#416
b1111111110111000 #
#417
b1111111110111001 #
#418
b1111111110111010 #
#419
b1111111110111011 #
#420
b1111111110111100 #
#421
b1111111110111101 #
#422
b1111111110111110 #
#423
b1111111110111111 #
#424
b1111111111000000 #
#425
b1111111111000001 #
#426
b1111111111000010 #
#427
b1111111111000011 #
#428
b1111111111000100 #
#429
b1111111111000101 #
#430
b1111111111000110 #
#431
b1111111111000111 #
#432
b1111111111001000 #
#433
b1111111111001001 #
#434
b1111111111001010 #
#435
b1111111111001011 #
#436
b1111111111001100 #
#437
b1111111111001101 #
#438
b1111111111001110 #
#439
b1111111111001111 #
#440
b1111111111010000 #
#441
b1111111111010001 #
#442
b1111111111010010 #
#443
b1111111111010011 #
#444
b1111111111010100 #
#445
b1111111111010101 #
#446
b1111111111010110 #
#447
b1111111111010111 #
#448
b1111111111011000 #
#449
b1111111111011001 #
#450
b1111111111011010 #
#451
b1111111111011011 #
#452
b1111111111011100 #
#453
b1111111111011101 #
#454
b1111111111011110 #
#455
b1111111111011111 #
#456
b1111111111100000 #
#457
b1111111111100001 #
#458
b1111111111100010 #
#459
b1111111111100011 #
#460
b1111111111100100 #
#461
b1111111111100101 #
#462
b1111111111100110 #
#463
b1111111111100111 #
#464
b1111111111101000 #
#465
b1111111111101001 #
#466
b1111111111101010 #
#467
b1111111111101011 #
#468
b1111111111101100 #
#469
b1111111111101101 #
#470
b1111111111101110 #
#471
b1111111111101111 #
#472
b1111111111110000 #
#473
b1111111111110001 #
#474
b1111111111110010 #
#475
b1111111111110011 #
#476
b1111111111110100 #
#477
b1111111111110101 #
#478
b1111111111110110 #
#479
b1111111111110111 #
#480
b1111111111111000 #
#481
b1111111111111001 #
#482
b1111111111111010 #
#483
b1111111111111011 #
#484
b1111111111111100 #
#485
b1111111111111101 #
#486
b1111111111111110 #
#487
b1111111111111111 #
#488
b0 #
#489
b1 #
#490
b10 #
#491
b11 #
#492
b100 #
#493
b101 #
#494
b110 #
#495
b111 #
#496
b1000 #
#497
b1001 #
#498
b1010 #
#499
b1011 #
#500
b1100 #
#501
b1101 #
#502
b1110 #
#503
b1111 #
#504
b10000 #
#505
b10001 #
#506
b10010 #
#507
b10011 #
#508
b10100 #
#509
b10101 #
#510
b10110 #
#511
b10111 #
#512
b11000 #
13
1u
#513
b11001 #
03
#514
b11010 #
#515
b11011 #
#516
b11100 #
#517
b11101 #
#518
b11110 #
#519
b11111 #
#520
b100000 #
#521
b100001 #
#522
b100010 #
#523
b100011 #
#524
b100100 #
#525
b100101 #
#526
b100110 #
#527
b100111 #
#528
b101000 #
#529
b101001 #
#530
b101010 #
#531
b101011 #
#532
b101100 #
#533
b101101 #
#534
b101110 #
#535
b101111 #
#536
b110000 #
#537
b110001 #
#538
b110010 #
#539
b110011 #
#540
b110100 #
#541
b110101 #
#542
b110110 #
#543
b110111 #
#544
b111000 #
#545
b111001 #
#546
b111010 #
#547
b111011 #
#548
b111100 #
#549
b111101 #
#550
b111110 #
#551
b111111 #
#552
b1000000 #
#553
b1000001 #
#554
b1000010 #
#555
b1000011 #
#556
b1000100 #
#557
b1000101 #
#558
b1000110 #
#559
b1000111 #
#560
b1001000 #
#561
b1001001 #
#562
b1001010 #
#563
b1001011 #
#564
b1001100 #
#565
b1001101 #
#566
b1001110 #
#567
b1001111 #
#568
b1010000 #
#569
b1010001 #
#570
b1010010 #
#571
b1010011 #
#572
b1010100 #
#573
b1010101 #
#574
b1010110 #
#575
b1010111 #
#576
b1011000 #
#577
b1011001 #
#578
b1011010 #
#579
b1011011 #
#580
b1011100 #
#581
b1011101 #
#582
b1011110 #
#583
b1011111 #
#584
b1100000 #
#585
b1100001 #
#586
b1100010 #
#587
b1100011 #
#588
b1100100 #
#589
b1100101 #
#590
b1100110 #
#591
b1100111 #
#592
b1101000 #
#593
b1101001 #
#594
b1101010 #
#595
b1101011 #
#596
b1101100 #
#597
b1101101 #
#598
b1101110 #
#599
b1101111 #
#600
b1110000 #
#601
b1110001 #
#602
b1110010 #
#603
b1110011 #
#604
b1110100 #
#605
b1110101 #
#606
b1110110 #
#607
b1110111 #
#608
b1111000 #
#609
b1111001 #
#610
b1111010 #
#611
b1111011 #
#612
b1111100 #
#613
b1111101 #
#614
b1111110 #
#615
b1111111 #
#616
b10000000 #
#617
b10000001 #
#618
b10000010 #
#619
b10000011 #
#620
b10000100 #
#621
b10000101 #
#622
b10000110 #
#623
b10000111 #
#624
b10001000 #
#625
b10001001 #
#626
b10001010 #
#627
b10001011 #
#628
b10001100 #
#629
b10001101 #
#630
b10001110 #
#631
b10001111 #
#632
b10010000 #
#633
b10010001 #
#634
b10010010 #
#635
b10010011 #
#636
b10010100 #
#637
b10010101 #
#638
b10010110 #
#639
b10010111 #
#640
b10011000 #
#641
b10011001 #
#642
b10011010 #
#643
b10011011 #
#644
b10011100 #
#645
b10011101 #
#646
b10011110 #
#647
b10011111 #
#648
b10100000 #
#649
b10100001 #
#650
b10100010 #
#651
b10100011 #
#652
b10100100 #
#653
b10100101 #
#654
b10100110 #
#655
b10100111 #
#656
b10101000 #
#657
b10101001 #
#658
b10101010 #
#659
b10101011 #
#660
b10101100 #
#661
b10101101 #
#662
b10101110 #
#663
b10101111 #
#664
b10110000 #
#665
b10110001 #
#666
b10110010 #
#667
b10110011 #
#668
b10110100 #
#669
b10110101 #
#670
b10110110 #
#671
b10110111 #
#672
b10111000 #
#673
b10111001 #
#674
b10111010 #
#675
b10111011 #
#676
b10111100 #
#677
b10111101 #
#678
b10111110 #
#679
b10111111 #
#680
b11000000 #
#681
b11000001 #
#682
b11000010 #
#683
b11000011 #
#684
b11000100 #
#685
b11000101 #
#686
b11000110 #
#687
b11000111 #
#688
b11001000 #
#689
b11001001 #
#690
b11001010 #
#691
b11001011 #
#692
b11001100 #
#693
b11001101 #
#694
b11001110 #
#695
b11001111 #
#696
b11010000 #
#697
b11010001 #
#698
b11010010 #
#699
b11010011 #
#700
b11010100 #
#701
b11010101 #
#702
b11010110 #
#703
b11010111 #
#704
b11011000 #
#705
b11011001 #
#706
b11011010 #
#707
b11011011 #
#708
b11011100 #
#709
b11011101 #
#710
b11011110 #
#711
b11011111 #
#712
b11100000 #
#713
b11100001 #
#714
b11100010 #
#715
b11100011 #
#716
b11100100 #
#717
b11100101 #
#718
b11100110 #
#719
b11100111 #
#720
b11101000 #
#721
b11101001 #
#722
b11101010 #
#723
b11101011 #
#724
b11101100 #
#725
b11101101 #
#726
b11101110 #
#727
b11101111 #
#728
b11110000 #
#729
b11110001 #
#730
b11110010 #
#731
b11110011 #
#732
b11110100 #
#733
b11110101 #
#734
b11110110 #
#735
b11110111 #
#736
b11111000 #
#737
b11111001 #
#738
b11111010 #
#739
b11111011 #
#740
b11111100 #
#741
b11111101 #
#742
b11111110 #
#743
b11111111 #
#744
b100000000 #
#745
b100000001 #
#746
b100000010 #
#747
b100000011 #
#748
b100000100 #
#749
b100000101 #
#750
b100000110 #
#751
b100000111 #
#752
b100001000 #
#753
b100001001 #
#754
b100001010 #
#755
b100001011 #
#756
b100001100 #
#757
b100001101 #
#758
b100001110 #
#759
b100001111 #
#760
b100010000 #
#761
b100010001 #
#762
b100010010 #
#763
b100010011 #
#764
b100010100 #
#765
b100010101 #
#766
b100010110 #
#767
b100010111 #
#768
b100011000 #
#769
b100011001 #
#770
b100011010 #
#771
b100011011 #
#772
b100011100 #
#773
b100011101 #
#774
b100011110 #
#775
b100011111 #
#776
b100100000 #
#777
b100100001 #
#778
b100100010 #
#779
b100100011 #
#780
b100100100 #
#781
b100100101 #
#782
b100100110 #
#783
b100100111 #
#784
b100101000 #
#785
b100101001 #
#786
b100101010 #
#787
b100101011 #
#788
b100101100 #
#789
b100101101 #
#790
b100101110 #
#791
b100101111 #
#792
b100110000 #
#793
b100110001 #
#794
b100110010 #
#795
b100110011 #
#796
b100110100 #
#797
b100110101 #
#798
b100110110 #
#799
b100110111 #
#800
b100111000 #
#801
b100111001 #
#802
b100111010 #
#803
b100111011 #
#804
b100111100 #
#805
b100111101 #
#806
b100111110 #
#807
b100111111 #
#808
b101000000 #
#809
b101000001 #
#810
b101000010 #
#811
b101000011 #
#812
b101000100 #
#813
b101000101 #
#814
b101000110 #
#815
b101000111 #
#816
b101001000 #
#817
b101001001 #
#818
b101001010 #
#819
b101001011 #
#820
b101001100 #
#821
b101001101 #
#822
b101001110 #
#823
b101001111 #
#824
b101010000 #
#825
b101010001 #
#826
b101010010 #
#827
b101010011 #
#828
b101010100 #
#829
b101010101 #
#830
b101010110 #
#831
b101010111 #
#832
b101011000 #
#833
b101011001 #
#834
b101011010 #
#835
b101011011 #
#836
b101011100 #
#837
b101011101 #
#838
b101011110 #
#839
b101011111 #
#840
b101100000 #
#841
b101100001 #
#842
b101100010 #
#843
b101100011 #
#844
b101100100 #
#845
b101100101 #
#846
b101100110 #
#847
b101100111 #
#848
b101101000 #
#849
b101101001 #
#850
b101101010 #
#851
b101101011 #
#852
b101101100 #
#853
b101101101 #
#854
b101101110 #
#855
b101101111 #
#856
b101110000 #
#857
b101110001 #
#858
b101110010 #
#859
b101110011 #
#860
b101110100 #
#861
b101110101 #
#862
b101110110 #
#863
b101110111 #
#864
b101111000 #
#865
b101111001 #
#866
b101111010 #
#867
b101111011 #
#868
b101111100 #
#869
b101111101 #
#870
b101111110 #
#871
b101111111 #
#872
b110000000 #
#873
b110000001 #
#874
b110000010 #
#875
b110000011 #
#876
b110000100 #
#877
b110000101 #
#878
b110000110 #
#879
b110000111 #
#880
b110001000 #
#881
b110001001 #
#882
b110001010 #
#883
b110001011 #
#884
b110001100 #
#885
b110001101 #
#886
b110001110 #
#887
b110001111 #
#888
b110010000 #
#889
b110010001 #
#890
b110010010 #
#891
b110010011 #
#892
b110010100 #
#893
b110010101 #
#894
b110010110 #
#895
b110010111 #
#896
b110011000 #
#897
b110011001 #
#898
b110011010 #
#899
b110011011 #
#900
b110011100 #
#901
b110011101 #
#902
b110011110 #
#903
b110011111 #
#904
b110100000 #
#905
b110100001 #
#906
b110100010 #
#907
b110100011 #
#908
b110100100 #
#909
b110100101 #
#910
b110100110 #
#911
b110100111 #
#912
b110101000 #
#913
b110101001 #
#914
b110101010 #
#915
b110101011 #
#916
b110101100 #
#917
b110101101 #
#918
b110101110 #
#919
b110101111 #
#920
b110110000 #
#921
b110110001 #
#922
b110110010 #
#923
b110110011 #
#924
b110110100 #
#925
b110110101 #
#926
b110110110 #
#927
b110110111 #
#928
b110111000 #
#929
b110111001 #
#930
b110111010 #
#931
b110111011 #
#932
b110111100 #
#933
b110111101 #
#934
b110111110 #
#935
b110111111 #
#936
b111000000 #
#937
b111000001 #
#938
b111000010 #
#939
b111000011 #
#940
b111000100 #
#941
b111000101 #
#942
b111000110 #
#943
b111000111 #
#944
b111001000 #
#945
b111001001 #
#946
b111001010 #
#947
b111001011 #
#948
b111001100 #
#949
b111001101 #
#950
b111001110 #
#951
b111001111 #
#952
b111010000 #
#953
b111010001 #
#954
b111010010 #
#955
b111010011 #
#956
b111010100 #
#957
b111010101 #
#958
b111010110 #
#959
b111010111 #
#960
b111011000 #
#961
b111011001 #
#962
b111011010 #
#963
b111011011 #
#964
b111011100 #
#965
b111011101 #
#966
b111011110 #
#967
b111011111 #
#968
b111100000 #
#969
b111100001 #
#970
b111100010 #
#971
b111100011 #
#972
b111100100 #
#973
b111100101 #
#974
b111100110 #
#975
b111100111 #
#976
b111101000 #
#977
b111101001 #
#978
b111101010 #
#979
b111101011 #
#980
b111101100 #
#981
b111101101 #
#982
b111101110 #
#983
b111101111 #
#984
b111110000 #
#985
b111110001 #
#986
b111110010 #
#987
b111110011 #
#988
b111110100 #
#989
b111110101 #
#990
b111110110 #
#991
b111110111 #
#992
b111111000 #
#993
b111111001 #
#994
b111111010 #
#995
b111111011 #
#996
b111111100 #
#997
b111111101 #
#998
b111111110 #
#999
b111111111 #
#1000
b1000000000 #
#1001
b1000000001 #
#1002
b1000000010 #
#1003
b1000000011 #
#1004
b1000000100 #
#1005
b1000000101 #
#1006
b1000000110 #
#1007
b1000000111 #
#1008
b1000001000 #
#1009
b1000001001 #
#1010
b1000001010 #
#1011
b1000001011 #
#1012
b1000001100 #
#1013
b1000001101 #
#1014
b1000001110 #
#1015
b1000001111 #
#1016
b1000010000 #
#1017
b1000010001 #
#1018
b1000010010 #
#1019
b1000010011 #
#1020
b1000010100 #
#1021
b1000010101 #
#1022
b1000010110 #
#1023
b1000010111 #
